{
    "python.venvPath":"~/.cache/pypoetry/virtualenvs/",

    "diagnostic.errorSign": "✘",
    "diagnostic.warningSign": "",
    "diagnostic.infoSign": "",
    "diagnostic.hintSign": "•",

	"languageserver": {
        "ccls": {
            "command": "ccls",
            "filetypes": [
                "c",
                "cpp",
                "objc",
                "objcpp"
            ],
            "rootPatterns": [
                ".ccls",
                "compile_commands.json",
                ".vim/",
                ".git/",
                ".hg/"
            ],
            "initializationOptions": {
                "cache": {
                    "directory": "/tmp/ccls"
                }
            }
        }
    }
}
